Peer Assessment 1, Reproducible Research
…
## [1] 10395

Question 2:

What is the average daily activity pattern?

In order to succinctly answer this question, I had to group the number of steps that were taken according to the five minute intervals of observations for each day. So as to improve the readability, I changed the column variable names to be more descriptive.

by_int <- group_by(data, interval)
step_mean_by_int <- summarise(by_int, mean(steps, na.rm=TRUE))
colnames(step_mean_by_int) <- c("interval", "step_mean")
mins  <-  substr(step_mean_by_int$interval, nchar(step_mean_by_int$interval)-1, nchar(step_mean_by_int$interval))
print(step_mean_by_int)

## # A tibble: 288 x 2
##    interval step_mean
##       <int>     <dbl>
##  1        0    1.72  
##  2        5    0.340 
##  3       10    0.132 
##  4       15    0.151 
##  5       20    0.0755
##  6       25    2.09  
##  7       30    0.528 
##  8       35    0.868 
##  9       40    0     
## 10       45    1.47  
## # ... with 278 more rows
…
